<svg width="19" height="18" viewBox="0 0 19 18" fill="none" xmlns="http://www.w3.org/2000/svg">
<path id="Star Copy 4" fill-rule="evenodd" clip-rule="evenodd" d="M9.5 14.3456L3.91604 17.1857L4.89152 10.9974L0.464963 6.56434L6.6518 5.57979L9.5 0L12.3482 5.57979L18.535 6.56434L14.1085 10.9974L15.084 17.1857L9.5 14.3456Z" fill="#B0B0B0"/>
</svg>
