<?xml version="1.0" encoding="utf-8"?>
<!-- Generator: Adobe Illustrator 24.0.2, SVG Export Plug-In . SVG Version: 6.00 Build 0)  -->
<svg version="1.1" id="Layer_1" xmlns="http://www.w3.org/2000/svg" xmlns:xlink="http://www.w3.org/1999/xlink" x="0px" y="0px"
	 viewBox="0 0 27 27" style="enable-background:new 0 0 27 27;" xml:space="preserve">
<style type="text/css">
	.st0{fill-rule:evenodd;clip-rule:evenodd;fill:#02B2EE;}
</style>
<path class="st0" d="M22.6,0.5V26c0.3,0,0.5,0.2,0.5,0.5c0,0.3-0.2,0.5-0.5,0.5H15h-3H4.4c-0.3,0-0.5-0.2-0.5-0.5
	c0-0.3,0.2-0.5,0.5-0.5h0V0.5l0,0l0,0C4.5,0.2,4.7,0,5,0h17c0,0,0.1,0,0.1,0C22.4,0,22.6,0.2,22.6,0.5z M21.6,1H5.5v25h6v-3.5
	c0-0.3,0.2-0.5,0.5-0.5h3c0.3,0,0.5,0.2,0.5,0.5V26h6V1z M12.5,26v-3h2v3H12.5z M10,22H7c-0.3,0-0.5,0.2-0.5,0.5v2
	C6.5,24.8,6.7,25,7,25h3c0.3,0,0.5-0.2,0.5-0.5v-2C10.5,22.2,10.3,22,10,22z M9.5,24h-2v-1h2V24z M20.1,25h-3
	c-0.3,0-0.5-0.2-0.5-0.5v-2c0-0.3,0.2-0.5,0.5-0.5h3c0.3,0,0.5,0.2,0.5,0.5v2C20.6,24.8,20.4,25,20.1,25z M19.6,23h-2v1h2V23z
	 M10,18H7c-0.3,0-0.5,0.2-0.5,0.5v2C6.5,20.8,6.7,21,7,21h3c0.3,0,0.5-0.2,0.5-0.5v-2C10.5,18.2,10.3,18,10,18z M9.5,20h-2v-1h2V20z
	 M15,21h-3c-0.3,0-0.5-0.2-0.5-0.5v-2c0-0.3,0.2-0.5,0.5-0.5h3c0.3,0,0.5,0.2,0.5,0.5v2C15.5,20.8,15.3,21,15,21z M14.5,19h-2v1h2
	V19z M17.1,21h3c0.3,0,0.5-0.2,0.5-0.5v-2c0-0.3-0.2-0.5-0.5-0.5h-3c-0.3,0-0.5,0.2-0.5,0.5v2C16.5,20.8,16.8,21,17.1,21z M17.6,19
	h2v1h-2V19z M7,14h3c0.3,0,0.5,0.2,0.5,0.5v2c0,0.3-0.2,0.5-0.5,0.5H7c-0.3,0-0.5-0.2-0.5-0.5v-2C6.5,14.2,6.7,14,7,14z M7.5,16h2
	v-1h-2V16z M12,17h3c0.3,0,0.5-0.2,0.5-0.5v-2c0-0.3-0.2-0.5-0.5-0.5h-3c-0.3,0-0.5,0.2-0.5,0.5v2C11.5,16.8,11.7,17,12,17z
	 M12.5,15h2v1h-2V15z M20.1,17h-3c-0.3,0-0.5-0.2-0.5-0.5v-2c0-0.3,0.2-0.5,0.5-0.5h3c0.3,0,0.5,0.2,0.5,0.5v2
	C20.6,16.8,20.4,17,20.1,17z M19.6,15h-2v1h2V15z M10,10H7c-0.3,0-0.5,0.2-0.5,0.5v2C6.5,12.8,6.7,13,7,13h3c0.3,0,0.5-0.2,0.5-0.5
	v-2C10.5,10.2,10.3,10,10,10z M9.5,12h-2v-1h2V12z M15,13h-3c-0.3,0-0.5-0.2-0.5-0.5v-2c0-0.3,0.2-0.5,0.5-0.5h3
	c0.3,0,0.5,0.2,0.5,0.5v2C15.5,12.8,15.3,13,15,13z M14.5,11h-2v1h2V11z M17.1,13h3c0.3,0,0.5-0.2,0.5-0.5v-2c0-0.3-0.2-0.5-0.5-0.5
	h-3c-0.3,0-0.5,0.2-0.5,0.5v2C16.5,12.8,16.8,13,17.1,13z M17.6,11h2v1h-2V11z M7,6h3c0.3,0,0.5,0.2,0.5,0.5v2C10.5,8.8,10.3,9,10,9
	H7C6.7,9,6.5,8.8,6.5,8.5v-2C6.5,6.2,6.7,6,7,6z M7.5,8h2V7h-2V8z M12,9h3c0.3,0,0.5-0.2,0.5-0.5v-2C15.5,6.2,15.3,6,15,6h-3
	c-0.3,0-0.5,0.2-0.5,0.5v2C11.5,8.8,11.7,9,12,9z M12.5,7h2v1h-2V7z M20.1,9h-3c-0.3,0-0.5-0.2-0.5-0.5v-2c0-0.3,0.2-0.5,0.5-0.5h3
	c0.3,0,0.5,0.2,0.5,0.5v2C20.6,8.8,20.4,9,20.1,9z M19.6,7h-2v1h2V7z M10,2H7C6.7,2,6.5,2.2,6.5,2.5v2C6.5,4.8,6.7,5,7,5h3
	c0.3,0,0.5-0.2,0.5-0.5v-2C10.5,2.2,10.3,2,10,2z M9.5,4h-2V3h2V4z M15,5h-3c-0.3,0-0.5-0.2-0.5-0.5v-2C11.5,2.2,11.7,2,12,2h3
	c0.3,0,0.5,0.2,0.5,0.5v2C15.5,4.8,15.3,5,15,5z M14.5,3h-2v1h2V3z M17.1,5h3c0.3,0,0.5-0.2,0.5-0.5v-2c0-0.3-0.2-0.5-0.5-0.5h-3
	c-0.3,0-0.5,0.2-0.5,0.5v2C16.5,4.8,16.8,5,17.1,5z M17.6,3h2v1h-2V3z"/>
</svg>
